[
  {
    "request" : {
      "method" : "get",
      "uri" : "/gym/api/activitytypes"
    },
    "response" : {
      "status":200,
      "file":
      {
        "name": "data/activityTypes.json"
      },
      "headers" :
      {
        "Access-Control-Allow-Origin": "*"
      }
    }
  }
]
